Verilog/Datapath/simulationTranscript.txt
# Loading work.sisc_tb
# Loading work.sisc
# Loading work.ctrl
# Loading work.rf
# Loading work.alu
# Loading work.mux4
# Loading work.mux32
# Loading work.statreg
# Loading work.pc
# Loading work.br
# Loading work.ir
# Loading work.im
VSIM-16 > run -all
#                    0 00000000  xxxx  00000000  00000000  00000000  00000000  00000000  10  0  0  0
#                    5 00000000  0000  00000000  00000000  00000000  00000000  00000000  10  0  0  0
#                   25 00000000  0000  00000000  00000000  00000000  00000000  00000000  10  0  1  0
#                   35 00000000  0001  00000000  00000000  00000000  00000000  00000000  10  0  0  0
#                   45 00000000  0001  00000000  00000000  00000000  00000000  00000000  00  0  0  0
#                   55 00000000  0001  00000000  00000000  00000000  00000000  00000000  10  0  0  0
#                   75 00000000  0001  00000000  00000000  00000000  00000000  00000000  10  0  1  0
#                   85 88100001  0002  00000000  00000000  00000000  00000000  00000000  10  0  0  0
#                   95 88100001  0002  00000000  00000000  00000000  00000000  00000000  01  0  0  0
#                  105 88100001  0002  00000000  00000000  00000000  00000000  00000000  11  0  0  0
#                  115 88100001  0002  00000000  00000000  00000000  00000000  00000000  10  0  0  0
#                  125 88100001  0002  00000001  00000000  00000000  00000000  00000000  10  0  1  0
#                  135 80211001  0003  00000001  00000000  00000000  00000000  00000000  10  0  0  0
#                  145 80211001  0003  00000001  00000000  00000000  00000000  00000000  00  0  0  0
#                  155 80211001  0003  00000001  00000000  00000000  00000000  00000000  10  0  0  0
#                  175 80211001  0003  00000001  00000002  00000000  00000000  00000000  10  0  1  0
#                  185 8032200b  0004  00000001  00000002  00000000  00000000  00000000  10  0  0  0
#                  195 8032200b  0004  00000001  00000002  00000000  00000000  00000000  00  0  0  0
#                  205 8032200b  0004  00000001  00000002  00000000  00000000  00000000  10  0  0  0
#                  225 8032200b  0004  00000001  00000002  00000008  00000000  00000000  10  0  1  0
#                  235 80412002  0005  00000001  00000002  00000008  00000000  00000000  10  0  0  0
#                  245 80412002  0005  00000001  00000002  00000008  00000000  00000000  00  0  0  0
#                  255 80412002  0005  00000001  00000002  00000008  00000000  00000000  10  0  0  0
#                  275 80412002  0005  00000001  00000002  00000008  ffffffff  00000000  10  0  1  0
#                  285 8044300a  0006  00000001  00000002  00000008  ffffffff  00000000  10  0  0  0
#                  295 8044300a  0006  00000001  00000002  00000008  ffffffff  00000000  00  0  0  0
#                  305 8044300a  0006  00000001  00000002  00000008  ffffffff  00000000  10  0  0  0
#                  325 8044300a  0006  00000001  00000002  00000008  00ffffff  00000000  10  0  1  0
#                  335 80234007  0007  00000001  00000002  00000008  00ffffff  00000000  10  0  0  0
#                  345 80234007  0007  00000001  00000002  00000008  00ffffff  00000000  00  0  0  0
#                  355 80234007  0007  00000001  00000002  00000008  00ffffff  00000000  10  0  0  0
#                  375 80234007  0007  00000001  00fffff7  00000008  00ffffff  00000000  10  0  1  0
#                  385 80220004  0008  00000001  00fffff7  00000008  00ffffff  00000000  10  0  0  0
#                  395 80220004  0008  00000001  00fffff7  00000008  00ffffff  00000000  00  0  0  0
#                  405 80220004  0008  00000001  00fffff7  00000008  00ffffff  00000000  10  0  0  0
#                  425 80220004  0008  00000001  ff000008  00000008  00ffffff  00000000  10  0  1  0
#                  435 80421009  0009  00000001  ff000008  00000008  00ffffff  00000000  10  0  0  0
#                  445 80421009  0009  00000001  ff000008  00000008  00ffffff  00000000  00  0  0  0
#                  455 80421009  0009  00000001  ff000008  00000008  00ffffff  00000000  10  0  0  0
#                  475 80421009  0009  00000001  ff000008  00000008  fe000011  00000000  10  0  1  0
#                  485 80524005  000a  00000001  ff000008  00000008  fe000011  00000000  10  0  0  0
#                  495 80524005  000a  00000001  ff000008  00000008  fe000011  00000000  00  0  0  0
#                  505 80524005  000a  00000001  ff000008  00000008  fe000011  00000000  10  0  0  0
#                  525 80524005  000a  00000001  ff000008  00000008  fe000011  ff000019  10  0  1  0
#                  535 80324006  000b  00000001  ff000008  00000008  fe000011  ff000019  10  0  0  0
#                  545 80324006  000b  00000001  ff000008  00000008  fe000011  ff000019  00  0  0  0
#                  555 80324006  000b  00000001  ff000008  00000008  fe000011  ff000019  10  0  0  0
#                  575 80324006  000b  00000001  ff000008  fe000000  fe000011  ff000019  10  0  1  0
#                  585 00000000  000c  00000001  ff000008  fe000000  fe000011  ff000019  10  0  0  0
#                  595 00000000  000c  00000001  ff000008  fe000000  fe000011  ff000019  00  0  0  0
#                  605 00000000  000c  00000001  ff000008  fe000000  fe000011  ff000019  10  0  0  0
#                  625 00000000  000c  00000001  ff000008  fe000000  fe000011  ff000019  10  0  1  0
#                  635 88100001  000d  00000001  ff000008  fe000000  fe000011  ff000019  10  0  0  0
#                  645 88100001  000d  00000001  ff000008  fe000000  fe000011  ff000019  01  0  0  0
#                  655 88100001  000d  00000001  ff000008  fe000000  fe000011  ff000019  11  0  0  0
#                  665 88100001  000d  00000001  ff000008  fe000000  fe000011  ff000019  10  0  0  0
#                  675 88100001  000d  00000001  ff000008  fe000000  fe000011  ff000019  10  0  1  0
#                  685 80211002  000e  00000001  ff000008  fe000000  fe000011  ff000019  10  0  0  0
#                  695 80211002  000e  00000001  ff000008  fe000000  fe000011  ff000019  00  0  0  0
#                  705 80211002  000e  00000001  ff000008  fe000000  fe000011  ff000019  10  0  0  0
#                  725 80211002  000e  00000001  00000000  fe000000  fe000011  ff000019  10  0  1  0
#                  735 80201002  000f  00000001  00000000  fe000000  fe000011  ff000019  10  0  0  0
#                  745 80201002  000f  00000001  00000000  fe000000  fe000011  ff000019  00  0  0  0
#                  755 80201002  000f  00000001  00000000  fe000000  fe000011  ff000019  10  0  0  0
#                  775 80201002  000f  00000001  ffffffff  fe000000  fe000011  ff000019  10  0  1  0
#                  785 80311008  0010  00000001  ffffffff  fe000000  fe000011  ff000019  10  0  0  0
#                  795 80311008  0010  00000001  ffffffff  fe000000  fe000011  ff000019  00  0  0  0
#                  805 80311008  0010  00000001  ffffffff  fe000000  fe000011  ff000019  10  0  0  0
#                  825 80311008  0010  00000001  ffffffff  80000000  fe000011  ff000019  10  0  1  0
#                  835 80423001  0011  00000001  ffffffff  80000000  fe000011  ff000019  10  0  0  0
#                  845 80423001  0011  00000001  ffffffff  80000000  fe000011  ff000019  00  0  0  0
#                  855 80423001  0011  00000001  ffffffff  80000000  fe000011  ff000019  10  0  0  0
#                  875 80423001  0011  00000001  ffffffff  80000000  7fffffff  ff000019  10  0  1  0
#                  885 00000000  0012  00000001  ffffffff  80000000  7fffffff  ff000019  10  0  0  0
#                  895 00000000  0012  00000001  ffffffff  80000000  7fffffff  ff000019  00  0  0  0
#                  905 00000000  0012  00000001  ffffffff  80000000  7fffffff  ff000019  10  0  0  0
#                  925 00000000  0012  00000001  ffffffff  80000000  7fffffff  ff000019  10  0  1  0
#                  935 80400001  0013  00000001  ffffffff  80000000  7fffffff  ff000019  10  0  0  0
#                  945 80400001  0013  00000001  ffffffff  80000000  7fffffff  ff000019  00  0  0  0
#                  955 80400001  0013  00000001  ffffffff  80000000  7fffffff  ff000019  10  0  0  0
#                  975 80400001  0013  00000001  ffffffff  80000000  00000000  ff000019  10  0  1  0
#                  985 6100001d  0014  00000001  ffffffff  80000000  00000000  ff000019  10  0  0  0
#                  995 6100001d  0014  00000001  ffffffff  80000000  00000000  ff000019  00  0  0  0
#                 1005 6100001d  0014  00000001  ffffffff  80000000  00000000  ff000019  10  0  0  0
#                 1025 6100001d  0014  00000001  ffffffff  80000000  00000000  ff000019  10  0  1  0
#                 1035 88100001  0015  00000001  ffffffff  80000000  00000000  ff000019  10  0  0  0
#                 1045 88100001  0015  00000001  ffffffff  80000000  00000000  ff000019  01  0  0  0
#                 1055 88100001  0015  00000001  ffffffff  80000000  00000000  ff000019  11  0  0  0
#                 1065 88100001  0015  00000001  ffffffff  80000000  00000000  ff000019  10  0  0  0
#                 1075 88100001  0015  00000001  ffffffff  80000000  00000000  ff000019  10  0  1  0
#                 1085 88200004  0016  00000001  ffffffff  80000000  00000000  ff000019  10  0  0  0
#                 1095 88200004  0016  00000001  ffffffff  80000000  00000000  ff000019  01  0  0  0
#                 1105 88200004  0016  00000001  ffffffff  80000000  00000000  ff000019  11  0  0  0
#                 1115 88200004  0016  00000001  ffffffff  80000000  00000000  ff000019  10  0  0  0
#                 1125 88200004  0016  00000001  00000004  80000000  00000000  ff000019  10  0  1  0
#                 1135 8822ffff  0017  00000001  00000004  80000000  00000000  ff000019  10  0  0  0
#                 1145 8822ffff  0017  00000001  00000004  80000000  00000000  ff000019  01  0  0  0
#                 1155 8822ffff  0017  00000001  00000004  80000000  00000000  ff000019  11  0  0  0
#                 1165 8822ffff  0017  00000001  00000004  80000000  00000000  ff000019  10  0  0  0
#                 1175 8822ffff  0017  00000001  00000003  80000000  00000000  ff000019  10  0  1  0
#                 1185 51000005  0018  00000001  00000003  80000000  00000000  ff000019  10  0  0  0
#                 1195 51000005  0018  00000001  00000003  80000000  00000000  ff000019  00  0  0  0
#                 1205 51000005  0018  00000001  00000003  80000000  00000000  ff000019  10  0  0  0
#                 1225 51000005  0018  00000001  00000003  80000000  00000000  ff000019  10  0  1  0
#                 1235 88320000  0019  00000001  00000003  80000000  00000000  ff000019  10  0  0  0
#                 1245 88320000  0019  00000001  00000003  80000000  00000000  ff000019  01  0  0  0
#                 1255 88320000  0019  00000001  00000003  80000000  00000000  ff000019  11  0  0  0
#                 1265 88320000  0019  00000001  00000003  80000000  00000000  ff000019  10  0  0  0
#                 1275 88320000  0019  00000001  00000003  00000003  00000000  ff000019  10  0  1  0
#                 1285 88440001  001a  00000001  00000003  00000003  00000000  ff000019  10  0  0  0
#                 1295 88440001  001a  00000001  00000003  00000003  00000000  ff000019  01  0  0  0
#                 1305 88440001  001a  00000001  00000003  00000003  00000000  ff000019  11  0  0  0
#                 1315 88440001  001a  00000001  00000003  00000003  00000000  ff000019  10  0  0  0
#                 1325 88440001  001a  00000001  00000003  00000003  00000001  ff000019  10  0  1  0
#                 1335 80331002  001b  00000001  00000003  00000003  00000001  ff000019  10  0  0  0
#                 1345 80331002  001b  00000001  00000003  00000003  00000001  ff000019  00  0  0  0
#                 1355 80331002  001b  00000001  00000003  00000003  00000001  ff000019  10  0  0  0
#                 1375 80331002  001b  00000001  00000003  00000002  00000001  ff000019  10  0  1  0
#                 1385 7100fffd  001c  00000001  00000003  00000002  00000001  ff000019  10  0  1  1
#                 1395 7100fffd  0019  00000001  00000003  00000002  00000001  ff000019  00  0  0  0
#                 1405 7100fffd  0019  00000001  00000003  00000002  00000001  ff000019  10  0  0  0
#                 1425 7100fffd  0019  00000001  00000003  00000002  00000001  ff000019  10  0  1  0
#                 1435 88440001  001a  00000001  00000003  00000002  00000001  ff000019  10  0  0  0
#                 1445 88440001  001a  00000001  00000003  00000002  00000001  ff000019  01  0  0  0
#                 1455 88440001  001a  00000001  00000003  00000002  00000001  ff000019  11  0  0  0
#                 1465 88440001  001a  00000001  00000003  00000002  00000001  ff000019  10  0  0  0
#                 1475 88440001  001a  00000001  00000003  00000002  00000002  ff000019  10  0  1  0
#                 1485 80331002  001b  00000001  00000003  00000002  00000002  ff000019  10  0  0  0
#                 1495 80331002  001b  00000001  00000003  00000002  00000002  ff000019  00  0  0  0
#                 1505 80331002  001b  00000001  00000003  00000002  00000002  ff000019  10  0  0  0
#                 1525 80331002  001b  00000001  00000003  00000001  00000002  ff000019  10  0  1  0
#                 1535 7100fffd  001c  00000001  00000003  00000001  00000002  ff000019  10  0  1  1
#                 1545 7100fffd  0019  00000001  00000003  00000001  00000002  ff000019  00  0  0  0
#                 1555 7100fffd  0019  00000001  00000003  00000001  00000002  ff000019  10  0  0  0
#                 1575 7100fffd  0019  00000001  00000003  00000001  00000002  ff000019  10  0  1  0
#                 1585 88440001  001a  00000001  00000003  00000001  00000002  ff000019  10  0  0  0
#                 1595 88440001  001a  00000001  00000003  00000001  00000002  ff000019  01  0  0  0
#                 1605 88440001  001a  00000001  00000003  00000001  00000002  ff000019  11  0  0  0
#                 1615 88440001  001a  00000001  00000003  00000001  00000002  ff000019  10  0  0  0
#                 1625 88440001  001a  00000001  00000003  00000001  00000003  ff000019  10  0  1  0
#                 1635 80331002  001b  00000001  00000003  00000001  00000003  ff000019  10  0  0  0
#                 1645 80331002  001b  00000001  00000003  00000001  00000003  ff000019  00  0  0  0
#                 1655 80331002  001b  00000001  00000003  00000001  00000003  ff000019  10  0  0  0
#                 1675 80331002  001b  00000001  00000003  00000000  00000003  ff000019  10  0  1  0
#                 1685 7100fffd  001c  00000001  00000003  00000000  00000003  ff000019  10  0  0  0
#                 1695 7100fffd  001c  00000001  00000003  00000000  00000003  ff000019  00  0  0  0
#                 1705 7100fffd  001c  00000001  00000003  00000000  00000003  ff000019  10  0  0  0
#                 1725 7100fffd  001c  00000001  00000003  00000000  00000003  ff000019  10  0  1  0
#                 1735 60000016  001d  00000001  00000003  00000000  00000003  ff000019  10  1  1  1
#                 1745 60000016  0016  00000001  00000003  00000000  00000003  ff000019  00  0  0  0
#                 1755 60000016  0016  00000001  00000003  00000000  00000003  ff000019  10  0  0  0
#                 1775 60000016  0016  00000001  00000003  00000000  00000003  ff000019  10  0  1  0
#                 1785 8822ffff  0017  00000001  00000003  00000000  00000003  ff000019  10  0  0  0
#                 1795 8822ffff  0017  00000001  00000003  00000000  00000003  ff000019  01  0  0  0
#                 1805 8822ffff  0017  00000001  00000003  00000000  00000003  ff000019  11  0  0  0
#                 1815 8822ffff  0017  00000001  00000003  00000000  00000003  ff000019  10  0  0  0
#                 1825 8822ffff  0017  00000001  00000002  00000000  00000003  ff000019  10  0  1  0
#                 1835 51000005  0018  00000001  00000002  00000000  00000003  ff000019  10  0  0  0
#                 1845 51000005  0018  00000001  00000002  00000000  00000003  ff000019  00  0  0  0
#                 1855 51000005  0018  00000001  00000002  00000000  00000003  ff000019  10  0  0  0
#                 1875 51000005  0018  00000001  00000002  00000000  00000003  ff000019  10  0  1  0
#                 1885 88320000  0019  00000001  00000002  00000000  00000003  ff000019  10  0  0  0
#                 1895 88320000  0019  00000001  00000002  00000000  00000003  ff000019  01  0  0  0
#                 1905 88320000  0019  00000001  00000002  00000000  00000003  ff000019  11  0  0  0
#                 1915 88320000  0019  00000001  00000002  00000000  00000003  ff000019  10  0  0  0
#                 1925 88320000  0019  00000001  00000002  00000002  00000003  ff000019  10  0  1  0
#                 1935 88440001  001a  00000001  00000002  00000002  00000003  ff000019  10  0  0  0
#                 1945 88440001  001a  00000001  00000002  00000002  00000003  ff000019  01  0  0  0
#                 1955 88440001  001a  00000001  00000002  00000002  00000003  ff000019  11  0  0  0
#                 1965 88440001  001a  00000001  00000002  00000002  00000003  ff000019  10  0  0  0
#                 1975 88440001  001a  00000001  00000002  00000002  00000004  ff000019  10  0  1  0
#                 1985 80331002  001b  00000001  00000002  00000002  00000004  ff000019  10  0  0  0
#                 1995 80331002  001b  00000001  00000002  00000002  00000004  ff000019  00  0  0  0
#                 2005 80331002  001b  00000001  00000002  00000002  00000004  ff000019  10  0  0  0
#                 2025 80331002  001b  00000001  00000002  00000001  00000004  ff000019  10  0  1  0
#                 2035 7100fffd  001c  00000001  00000002  00000001  00000004  ff000019  10  0  1  1
#                 2045 7100fffd  0019  00000001  00000002  00000001  00000004  ff000019  00  0  0  0
#                 2055 7100fffd  0019  00000001  00000002  00000001  00000004  ff000019  10  0  0  0
#                 2075 7100fffd  0019  00000001  00000002  00000001  00000004  ff000019  10  0  1  0
#                 2085 88440001  001a  00000001  00000002  00000001  00000004  ff000019  10  0  0  0
#                 2095 88440001  001a  00000001  00000002  00000001  00000004  ff000019  01  0  0  0
#                 2105 88440001  001a  00000001  00000002  00000001  00000004  ff000019  11  0  0  0
#                 2115 88440001  001a  00000001  00000002  00000001  00000004  ff000019  10  0  0  0
#                 2125 88440001  001a  00000001  00000002  00000001  00000005  ff000019  10  0  1  0
#                 2135 80331002  001b  00000001  00000002  00000001  00000005  ff000019  10  0  0  0
#                 2145 80331002  001b  00000001  00000002  00000001  00000005  ff000019  00  0  0  0
#                 2155 80331002  001b  00000001  00000002  00000001  00000005  ff000019  10  0  0  0
#                 2175 80331002  001b  00000001  00000002  00000000  00000005  ff000019  10  0  1  0
#                 2185 7100fffd  001c  00000001  00000002  00000000  00000005  ff000019  10  0  0  0
#                 2195 7100fffd  001c  00000001  00000002  00000000  00000005  ff000019  00  0  0  0
#                 2205 7100fffd  001c  00000001  00000002  00000000  00000005  ff000019  10  0  0  0
#                 2225 7100fffd  001c  00000001  00000002  00000000  00000005  ff000019  10  0  1  0
#                 2235 60000016  001d  00000001  00000002  00000000  00000005  ff000019  10  1  1  1
#                 2245 60000016  0016  00000001  00000002  00000000  00000005  ff000019  00  0  0  0
#                 2255 60000016  0016  00000001  00000002  00000000  00000005  ff000019  10  0  0  0
#                 2275 60000016  0016  00000001  00000002  00000000  00000005  ff000019  10  0  1  0
#                 2285 8822ffff  0017  00000001  00000002  00000000  00000005  ff000019  10  0  0  0
#                 2295 8822ffff  0017  00000001  00000002  00000000  00000005  ff000019  01  0  0  0
#                 2305 8822ffff  0017  00000001  00000002  00000000  00000005  ff000019  11  0  0  0
#                 2315 8822ffff  0017  00000001  00000002  00000000  00000005  ff000019  10  0  0  0
#                 2325 8822ffff  0017  00000001  00000001  00000000  00000005  ff000019  10  0  1  0
#                 2335 51000005  0018  00000001  00000001  00000000  00000005  ff000019  10  0  0  0
#                 2345 51000005  0018  00000001  00000001  00000000  00000005  ff000019  00  0  0  0
#                 2355 51000005  0018  00000001  00000001  00000000  00000005  ff000019  10  0  0  0
#                 2375 51000005  0018  00000001  00000001  00000000  00000005  ff000019  10  0  1  0
#                 2385 88320000  0019  00000001  00000001  00000000  00000005  ff000019  10  0  0  0
#                 2395 88320000  0019  00000001  00000001  00000000  00000005  ff000019  01  0  0  0
#                 2405 88320000  0019  00000001  00000001  00000000  00000005  ff000019  11  0  0  0
#                 2415 88320000  0019  00000001  00000001  00000000  00000005  ff000019  10  0  0  0
#                 2425 88320000  0019  00000001  00000001  00000001  00000005  ff000019  10  0  1  0
#                 2435 88440001  001a  00000001  00000001  00000001  00000005  ff000019  10  0  0  0
#                 2445 88440001  001a  00000001  00000001  00000001  00000005  ff000019  01  0  0  0
#                 2455 88440001  001a  00000001  00000001  00000001  00000005  ff000019  11  0  0  0
#                 2465 88440001  001a  00000001  00000001  00000001  00000005  ff000019  10  0  0  0
#                 2475 88440001  001a  00000001  00000001  00000001  00000006  ff000019  10  0  1  0
#                 2485 80331002  001b  00000001  00000001  00000001  00000006  ff000019  10  0  0  0
#                 2495 80331002  001b  00000001  00000001  00000001  00000006  ff000019  00  0  0  0
#                 2505 80331002  001b  00000001  00000001  00000001  00000006  ff000019  10  0  0  0
#                 2525 80331002  001b  00000001  00000001  00000000  00000006  ff000019  10  0  1  0
#                 2535 7100fffd  001c  00000001  00000001  00000000  00000006  ff000019  10  0  0  0
#                 2545 7100fffd  001c  00000001  00000001  00000000  00000006  ff000019  00  0  0  0
#                 2555 7100fffd  001c  00000001  00000001  00000000  00000006  ff000019  10  0  0  0
#                 2575 7100fffd  001c  00000001  00000001  00000000  00000006  ff000019  10  0  1  0
#                 2585 60000016  001d  00000001  00000001  00000000  00000006  ff000019  10  1  1  1
#                 2595 60000016  0016  00000001  00000001  00000000  00000006  ff000019  00  0  0  0
#                 2605 60000016  0016  00000001  00000001  00000000  00000006  ff000019  10  0  0  0
#                 2625 60000016  0016  00000001  00000001  00000000  00000006  ff000019  10  0  1  0
#                 2635 8822ffff  0017  00000001  00000001  00000000  00000006  ff000019  10  0  0  0
#                 2645 8822ffff  0017  00000001  00000001  00000000  00000006  ff000019  01  0  0  0
#                 2655 8822ffff  0017  00000001  00000001  00000000  00000006  ff000019  11  0  0  0
#                 2665 8822ffff  0017  00000001  00000001  00000000  00000006  ff000019  10  0  0  0
#                 2675 8822ffff  0017  00000001  00000000  00000000  00000006  ff000019  10  0  1  0
#                 2685 51000005  0018  00000001  00000000  00000000  00000006  ff000019  10  0  1  1
#                 2695 51000005  001d  00000001  00000000  00000000  00000006  ff000019  00  0  0  0
#                 2705 51000005  001d  00000001  00000000  00000000  00000006  ff000019  10  0  0  0
#                 2725 51000005  001d  00000001  00000000  00000000  00000006  ff000019  10  0  1  0
#                 2735 f0000000  001e  00000001  00000000  00000000  00000006  ff000019  10  0  0  0
# Halt.
# ** Note: $stop    : //iowa.uiowa.edu/shared/engineering/home/eplsn/windowsdata/Desktop/p2/ctrl.v(193)
#    Time: 2740 ns  Iteration: 0  Instance: /sisc_tb/uut/u1